<svg width="12" height="24" viewBox="0 0 12 24" fill="none" xmlns="http://www.w3.org/2000/svg">
<path d="M11.7614 11.3819C11.9142 11.5458 12 11.7681 12 12C12 12.2318 11.9142 12.4541 11.7614 12.618L1.39087 23.7439C1.07269 24.0854 0.556801 24.0854 0.238629 23.7439C-0.079543 23.4027 -0.079543 22.8489 0.238629 22.5079L10.033 12L0.238629 1.49219C-0.079543 1.15084 -0.079543 0.597216 0.238629 0.256012C0.556801 -0.0853374 1.07269 -0.0853374 1.39087 0.256012L11.7614 11.3819Z" fill="#323232"/>
</svg>
